{
  "project_info": {
    "project_number": "1032388988804",
    "firebase_url": "https://jarent-f40e9.firebaseio.com",
    "project_id": "jarent-f40e9",
    "storage_bucket": "jarent-f40e9.appspot.com"
  },
  "client": [
    {
      "client_info": {
        "mobilesdk_app_id": "1:1032388988804:android:eb65ab4f0ca5ee8d",
        "android_client_info": {
          "package_name": "app.jarent.rent"
        }
      },
      "oauth_client": [
        {
          "client_id": "1032388988804-54u6d2m4gi02tefm1ba6m1jcjqtorm63.apps.googleusercontent.com",
          "client_type": 3
        }
      ],
      "api_key": [
        {
          "current_key": "AIzaSyA5mHNEEQi8wrOYdokBg9wMwI1vZ_1T_TA"
        }
      ],
      "services": {
        "appinvite_service": {
          "other_platform_oauth_client": [
            {
              "client_id": "1032388988804-54u6d2m4gi02tefm1ba6m1jcjqtorm63.apps.googleusercontent.com",
              "client_type": 3
            }
          ]
        }
      }
    }
  ],
  "configuration_version": "1"
}